<svg width="26" height="26" viewBox="0 0 26 26" fill="none" xmlns="http://www.w3.org/2000/svg">
<path d="M12.9998 0C5.8203 0 0 5.82039 0 12.9999C0 20.1791 5.82022 26 12.9996 26C20.179 26 25.9998 20.1791 25.9998 12.9999C25.9998 5.82039 20.1791 0 12.9998 0ZM18.4841 14.4299H14.3007V18.8039C14.3005 19.5373 13.7059 20.1319 12.9723 20.1319C12.2384 20.1319 11.6439 19.5373 11.6439 18.8034V14.4299H7.5719C6.83819 14.4297 6.24392 13.8352 6.24349 13.1015C6.24349 12.3681 6.83828 11.7733 7.5719 11.7731L11.6438 11.7734V7.89153C11.6438 7.15781 12.2386 6.56311 12.972 6.56311C13.7059 6.56311 14.3007 7.1579 14.3005 7.89153L14.3007 11.773L18.4836 11.7735C19.2174 11.773 19.8123 12.368 19.8121 13.1019C19.8123 13.8356 19.2174 14.4299 18.4841 14.4299Z" fill="#B4B4B4"/>
</svg>
