<svg width="27" height="23" viewBox="0 0 27 23" fill="none" xmlns="http://www.w3.org/2000/svg">
<path d="M27 12.2359C27 13.0478 26.3872 13.7067 25.6306 13.7067C25.6279 13.7067 25.6224 13.7067 25.6169 13.7067H23.0117V21.5292C23.0117 22.3411 22.3982 23 21.6423 23H17.1453C16.3894 23 15.7759 22.3411 15.7759 21.5292V17.383C15.7759 16.0313 14.7516 14.9319 13.4939 14.9319C12.2354 14.9319 11.2111 16.0313 11.2111 17.383V21.5292C11.2111 22.3411 10.5976 23 9.84175 23H5.34404C4.58814 23 3.97466 22.3411 3.97466 21.5292V13.7067H1.36943C0.791556 13.7067 0.275302 13.3184 0.080851 12.7345C-0.114285 12.1498 0.0514095 11.4975 0.495771 11.1019L12.6202 0.337C13.1269 -0.112333 13.8595 -0.112333 14.3655 0.337L26.3783 11.0019C26.7521 11.2651 27 11.7196 27 12.2359Z" fill="#DBDBDB"/>
</svg>
