<svg width="31" height="16" viewBox="0 0 31 16" fill="none" xmlns="http://www.w3.org/2000/svg">
<path d="M30.1489 0.367213H0.708197C0.303513 0.367213 0 0.681967 0 1.10164V15.2656C0 15.6852 0.303513 16 0.708197 16H30.0984C30.503 16 30.8066 15.6852 30.8066 15.2656V1.10164C30.8571 0.681967 30.5536 0.367213 30.1489 0.367213Z" fill="#7EAA84"/>
<path d="M30.1489 0H0.708197C0.303513 0 0 0.314754 0 0.734426V14.8984C0 15.318 0.303513 15.6328 0.708197 15.6328H30.0984C30.503 15.6328 30.8066 15.318 30.8066 14.8984V0.734426C30.8571 0.314754 30.5536 0 30.1489 0Z" fill="#B1DDB7"/>
<path d="M30.1489 15.6852C30.5536 15.6852 30.8571 15.3705 30.8571 14.9508V0.786885C30.8571 0.367213 30.5536 0.0524592 30.1489 0.0524592H0.708197C0.303513 0.0524592 0 0.367213 0 0.786885" fill="#95C19D"/>
<path d="M29.3396 4.24918C27.9738 4.24918 26.8609 3.09508 26.8609 1.67869C26.8609 1.57377 26.8609 1.46885 26.9115 1.36393H3.99625C3.99625 1.46885 4.04684 1.57377 4.04684 1.67869C4.04684 3.09508 2.93396 4.24918 1.56815 4.24918C1.46698 4.24918 1.36581 4.24918 1.26464 4.19672V11.4361C1.36581 11.4361 1.46698 11.3836 1.56815 11.3836C2.93396 11.3836 4.04684 12.5377 4.04684 13.9541C4.04684 14.059 4.04684 14.1639 3.99625 14.2164H26.8103C26.8103 14.1115 26.7597 14.0066 26.7597 13.9541C26.7597 12.5377 27.8726 11.3836 29.2384 11.3836C29.3396 11.3836 29.4408 11.3836 29.5419 11.4361V4.19672C29.4913 4.24918 29.4407 4.24918 29.3396 4.24918Z" fill="#52A85A"/>
<path d="M26.8103 1.62623C26.8103 1.52131 26.8103 1.41639 26.8609 1.31148H3.99625C3.99625 1.41639 4.04684 1.52131 4.04684 1.62623C4.04684 1.99344 3.99625 2.3082 3.8445 2.62295L26.8103 14.0066C26.8103 12.5902 27.9232 11.4361 29.289 11.4361C29.3902 11.4361 29.4913 11.4361 29.5925 11.4885V4.19672C29.4913 4.19672 29.3902 4.24918 29.289 4.24918C27.9232 4.24918 26.8103 3.09508 26.8103 1.62623Z" fill="#4D9356"/>
<path d="M1.41639 3.09508C1.31522 3.09508 1.21405 2.99016 1.21405 2.88525C1.21405 2.78033 1.31522 2.67541 1.41639 2.67541C2.074 2.67541 2.63044 2.09836 2.63044 1.41639C2.63044 1.31148 2.73162 1.20656 2.83279 1.20656C2.93396 1.20656 3.03513 1.31148 3.03513 1.41639C2.98454 2.41312 2.32693 3.09508 1.41639 3.09508Z" fill="#52A85A"/>
<path d="M2.98454 14.1639C2.98454 14.2689 2.88337 14.3738 2.7822 14.3738C2.68103 14.3738 2.57986 14.2689 2.57986 14.1639C2.57986 13.482 2.02342 12.9049 1.36581 12.9049C1.36581 12.9574 1.26464 12.8525 1.26464 12.7475C1.26464 12.6426 1.36581 12.5377 1.46698 12.5377C2.32693 12.5377 2.98454 13.2721 2.98454 14.1639Z" fill="#52A85A"/>
<path d="M29.4407 12.5377C29.5419 12.5377 29.6431 12.6426 29.6431 12.7475C29.6431 12.8525 29.5419 12.9574 29.4407 12.9574C28.7831 12.9574 28.2267 13.5344 28.2267 14.2164C28.2267 14.3213 28.1255 14.4262 28.0244 14.4262C27.9232 14.4262 27.822 14.3213 27.822 14.2164C27.8726 13.2721 28.5302 12.5377 29.4407 12.5377Z" fill="#52A85A"/>
<path d="M27.8726 1.52131C27.8726 1.41639 27.9738 1.31148 28.0749 1.31148C28.1761 1.31148 28.2773 1.41639 28.2773 1.52131C28.2773 2.20328 28.8337 2.78033 29.4913 2.78033C29.5925 2.78033 29.6937 2.88525 29.6937 2.99016C29.6937 3.09508 29.5925 3.2 29.4913 3.2C28.5302 3.09508 27.8726 2.41311 27.8726 1.52131Z" fill="#52A85A"/>
<path d="M15.4286 12.9574C18.1665 12.9574 20.3859 10.6557 20.3859 7.81639C20.3859 4.97711 18.1665 2.67541 15.4286 2.67541C12.6907 2.67541 10.4712 4.97711 10.4712 7.81639C10.4712 10.6557 12.6907 12.9574 15.4286 12.9574Z" fill="#7EAA84"/>
<path d="M15.4286 13.0098C17.6037 13.0098 19.4754 11.541 20.133 9.49508L18.5143 7.81639C18.1602 7.44918 17.5026 7.44918 17.1485 7.81639L16.7944 8.18361L14.8721 6.19016C14.518 5.82295 13.8604 5.82295 13.5063 6.19016L10.623 9.18033C11.23 11.3836 13.1522 13.0098 15.4286 13.0098Z" fill="#49754C"/>
<path d="M17.8061 8.55082C18.1602 8.18361 18.7672 8.18361 19.1719 8.55082L18.5143 7.86885C18.1602 7.50164 17.5026 7.50164 17.1485 7.86885L16.7944 8.23607L17.452 8.91803L17.8061 8.55082Z" fill="#5E8E63"/>
<path d="M11.2806 9.91475L14.1639 6.92459C14.518 6.55738 15.1756 6.55738 15.5297 6.92459L14.8721 6.24262C14.518 5.87541 13.8604 5.87541 13.5063 6.24262L10.623 9.23279C10.8759 10.282 11.4829 11.1738 12.2417 11.8033C11.7864 11.2787 11.4829 10.5967 11.2806 9.91475Z" fill="#5E8E63"/>
<path d="M15.4286 13.482C12.3934 13.482 9.96534 10.9639 9.96534 7.81639C9.96534 4.66885 12.3934 2.15082 15.4286 2.15082C18.4637 2.15082 20.8918 4.66885 20.8918 7.81639C20.8918 10.9639 18.4637 13.482 15.4286 13.482ZM15.4286 3.14754C12.9499 3.14754 10.9265 5.2459 10.9265 7.81639C10.9265 10.3869 12.9499 12.4852 15.4286 12.4852C17.9073 12.4852 19.9307 10.3869 19.9307 7.81639C19.9307 5.2459 17.9073 3.14754 15.4286 3.14754Z" fill="#99D1A0"/>
<path d="M20.133 10.7541C20.6389 9.91475 20.8918 8.91803 20.8918 7.86885C20.8918 4.72131 18.4637 2.20328 15.4286 2.20328C13.1016 2.20328 11.0782 3.72459 10.3194 5.87541L11.1794 6.29508C11.7864 4.45902 13.4557 3.14754 15.4286 3.14754C17.9073 3.14754 19.9307 5.2459 19.9307 7.81639C19.9307 8.7082 19.6777 9.54754 19.2731 10.282L20.133 10.7541Z" fill="#95C19D"/>
<path d="M8.80187 7.81639C8.80187 7.92131 8.75129 7.97377 8.65012 7.97377H2.63044C2.52927 7.97377 2.47869 7.92131 2.47869 7.81639C2.47869 7.71147 2.52927 7.65902 2.63044 7.65902H8.65012C8.75129 7.71148 8.80187 7.76393 8.80187 7.81639Z" fill="#B1DDB7"/>
<path d="M1.87166 7.97377C1.95548 7.97377 2.02342 7.90331 2.02342 7.81639C2.02342 7.72948 1.95548 7.65902 1.87166 7.65902C1.78785 7.65902 1.71991 7.72948 1.71991 7.81639C1.71991 7.90331 1.78785 7.97377 1.87166 7.97377Z" fill="#B1DDB7"/>
<path d="M22.0553 7.81639C22.0553 7.71147 22.1059 7.65902 22.207 7.65902H28.2267C28.3279 7.65902 28.3785 7.71147 28.3785 7.81639C28.3785 7.92131 28.3279 7.97377 28.2267 7.97377H22.207C22.1059 7.97377 22.0553 7.92131 22.0553 7.81639Z" fill="#B1DDB7"/>
<path d="M28.9855 7.97377C29.0693 7.97377 29.1372 7.90331 29.1372 7.81639C29.1372 7.72948 29.0693 7.65902 28.9855 7.65902C28.9017 7.65902 28.8337 7.72948 28.8337 7.81639C28.8337 7.90331 28.9017 7.97377 28.9855 7.97377Z" fill="#B1DDB7"/>
<path d="M16.592 5.29836C16.1368 5.29836 15.7321 4.87869 15.7321 4.40656C15.7321 4.30164 15.7321 4.19672 15.7827 4.0918C15.4792 4.19672 15.2262 4.56393 15.2262 4.93115C15.2262 5.40328 15.6309 5.82295 16.0862 5.82295C16.4403 5.82295 16.7438 5.61311 16.8955 5.2459C16.845 5.29836 16.7438 5.29836 16.592 5.29836Z" fill="#95C19D"/>
<path d="M3.33864 5.2459C3.42245 5.2459 3.4904 5.17544 3.4904 5.08852C3.4904 5.00161 3.42245 4.93115 3.33864 4.93115C3.25483 4.93115 3.18689 5.00161 3.18689 5.08852C3.18689 5.17544 3.25483 5.2459 3.33864 5.2459Z" fill="#4D9356"/>
<path d="M4.14801 5.2459C4.23182 5.2459 4.29977 5.17544 4.29977 5.08852C4.29977 5.00161 4.23182 4.93115 4.14801 4.93115C4.0642 4.93115 3.99625 5.00161 3.99625 5.08852C3.99625 5.17544 4.0642 5.2459 4.14801 5.2459Z" fill="#4D9356"/>
<path d="M4.95738 5.2459C5.04119 5.2459 5.10913 5.17544 5.10913 5.08852C5.10913 5.00161 5.04119 4.93115 4.95738 4.93115C4.87356 4.93115 4.80562 5.00161 4.80562 5.08852C4.80562 5.17544 4.87356 5.2459 4.95738 5.2459Z" fill="#4D9356"/>
<path d="M5.76674 5.2459C5.85056 5.2459 5.9185 5.17544 5.9185 5.08852C5.9185 5.00161 5.85056 4.93115 5.76674 4.93115C5.68293 4.93115 5.61499 5.00161 5.61499 5.08852C5.61499 5.17544 5.68293 5.2459 5.76674 5.2459Z" fill="#4D9356"/>
<path d="M6.72787 5.08852C6.72787 5.19344 6.67728 5.2459 6.57611 5.2459C6.47494 5.2459 6.42436 5.19344 6.42436 5.08852C6.42436 4.98361 6.47494 4.93115 6.57611 4.93115C6.67728 4.93115 6.72787 5.03607 6.72787 5.08852Z" fill="#4D9356"/>
<path d="M7.33489 5.2459C7.41871 5.2459 7.48665 5.17544 7.48665 5.08852C7.48665 5.00161 7.41871 4.93115 7.33489 4.93115C7.25108 4.93115 7.18314 5.00161 7.18314 5.08852C7.18314 5.17544 7.25108 5.2459 7.33489 5.2459Z" fill="#4D9356"/>
<path d="M8.14426 5.2459C8.22808 5.2459 8.29602 5.17544 8.29602 5.08852C8.29602 5.00161 8.22808 4.93115 8.14426 4.93115C8.06045 4.93115 7.99251 5.00161 7.99251 5.08852C7.99251 5.17544 8.06045 5.2459 8.14426 5.2459Z" fill="#4D9356"/>
<path d="M8.95363 5.2459C9.03744 5.2459 9.10539 5.17544 9.10539 5.08852C9.10539 5.00161 9.03744 4.93115 8.95363 4.93115C8.86982 4.93115 8.80187 5.00161 8.80187 5.08852C8.80187 5.17544 8.86982 5.2459 8.95363 5.2459Z" fill="#4D9356"/>
<path d="M3.33864 6.19016C3.42245 6.19016 3.4904 6.1197 3.4904 6.03279C3.4904 5.94587 3.42245 5.87541 3.33864 5.87541C3.25483 5.87541 3.18689 5.94587 3.18689 6.03279C3.18689 6.1197 3.25483 6.19016 3.33864 6.19016Z" fill="#4D9356"/>
<path d="M4.14801 6.19016C4.23182 6.19016 4.29977 6.1197 4.29977 6.03279C4.29977 5.94587 4.23182 5.87541 4.14801 5.87541C4.0642 5.87541 3.99625 5.94587 3.99625 6.03279C3.99625 6.1197 4.0642 6.19016 4.14801 6.19016Z" fill="#4D9356"/>
<path d="M4.95738 6.19016C5.04119 6.19016 5.10913 6.1197 5.10913 6.03279C5.10913 5.94587 5.04119 5.87541 4.95738 5.87541C4.87356 5.87541 4.80562 5.94587 4.80562 6.03279C4.80562 6.1197 4.87356 6.19016 4.95738 6.19016Z" fill="#4D9356"/>
<path d="M5.76674 6.19016C5.85056 6.19016 5.9185 6.1197 5.9185 6.03279C5.9185 5.94587 5.85056 5.87541 5.76674 5.87541C5.68293 5.87541 5.61499 5.94587 5.61499 6.03279C5.61499 6.1197 5.68293 6.19016 5.76674 6.19016Z" fill="#4D9356"/>
<path d="M6.52553 6.19016C6.60934 6.19016 6.67728 6.1197 6.67728 6.03279C6.67728 5.94587 6.60934 5.87541 6.52553 5.87541C6.44171 5.87541 6.37377 5.94587 6.37377 6.03279C6.37377 6.1197 6.44171 6.19016 6.52553 6.19016Z" fill="#4D9356"/>
<path d="M7.33489 6.19016C7.41871 6.19016 7.48665 6.1197 7.48665 6.03279C7.48665 5.94587 7.41871 5.87541 7.33489 5.87541C7.25108 5.87541 7.18314 5.94587 7.18314 6.03279C7.18314 6.1197 7.25108 6.19016 7.33489 6.19016Z" fill="#4D9356"/>
<path d="M8.14426 6.19016C8.22808 6.19016 8.29602 6.1197 8.29602 6.03279C8.29602 5.94587 8.22808 5.87541 8.14426 5.87541C8.06045 5.87541 7.99251 5.94587 7.99251 6.03279C7.99251 6.1197 8.06045 6.19016 8.14426 6.19016Z" fill="#4D9356"/>
<path d="M8.95363 6.19016C9.03744 6.19016 9.10539 6.1197 9.10539 6.03279C9.10539 5.94587 9.03744 5.87541 8.95363 5.87541C8.86982 5.87541 8.80187 5.94587 8.80187 6.03279C8.80187 6.1197 8.86982 6.19016 8.95363 6.19016Z" fill="#4D9356"/>
<path d="M3.33864 7.08197C3.42245 7.08197 3.4904 7.01151 3.4904 6.92459C3.4904 6.83767 3.42245 6.76721 3.33864 6.76721C3.25483 6.76721 3.18689 6.83767 3.18689 6.92459C3.18689 7.01151 3.25483 7.08197 3.33864 7.08197Z" fill="#4D9356"/>
<path d="M4.14801 7.08197C4.23182 7.08197 4.29977 7.01151 4.29977 6.92459C4.29977 6.83767 4.23182 6.76721 4.14801 6.76721C4.0642 6.76721 3.99625 6.83767 3.99625 6.92459C3.99625 7.01151 4.0642 7.08197 4.14801 7.08197Z" fill="#4D9356"/>
<path d="M4.95738 7.08197C5.04119 7.08197 5.10913 7.01151 5.10913 6.92459C5.10913 6.83767 5.04119 6.76721 4.95738 6.76721C4.87356 6.76721 4.80562 6.83767 4.80562 6.92459C4.80562 7.01151 4.87356 7.08197 4.95738 7.08197Z" fill="#4D9356"/>
<path d="M5.76674 7.08197C5.85056 7.08197 5.9185 7.01151 5.9185 6.92459C5.9185 6.83767 5.85056 6.76721 5.76674 6.76721C5.68293 6.76721 5.61499 6.83767 5.61499 6.92459C5.61499 7.01151 5.68293 7.08197 5.76674 7.08197Z" fill="#4D9356"/>
<path d="M6.52553 7.08197C6.60934 7.08197 6.67728 7.01151 6.67728 6.92459C6.67728 6.83767 6.60934 6.76721 6.52553 6.76721C6.44171 6.76721 6.37377 6.83767 6.37377 6.92459C6.37377 7.01151 6.44171 7.08197 6.52553 7.08197Z" fill="#4D9356"/>
<path d="M7.33489 7.08197C7.41871 7.08197 7.48665 7.01151 7.48665 6.92459C7.48665 6.83767 7.41871 6.76721 7.33489 6.76721C7.25108 6.76721 7.18314 6.83767 7.18314 6.92459C7.18314 7.01151 7.25108 7.08197 7.33489 7.08197Z" fill="#4D9356"/>
<path d="M8.14426 7.08197C8.22808 7.08197 8.29602 7.01151 8.29602 6.92459C8.29602 6.83767 8.22808 6.76721 8.14426 6.76721C8.06045 6.76721 7.99251 6.83767 7.99251 6.92459C7.99251 7.01151 8.06045 7.08197 8.14426 7.08197Z" fill="#4D9356"/>
<path d="M8.95363 7.08197C9.03744 7.08197 9.10539 7.01151 9.10539 6.92459C9.10539 6.83767 9.03744 6.76721 8.95363 6.76721C8.86982 6.76721 8.80187 6.83767 8.80187 6.92459C8.80187 7.01151 8.86982 7.08197 8.95363 7.08197Z" fill="#4D9356"/>
<path d="M3.33864 8.86557C3.42245 8.86557 3.4904 8.79511 3.4904 8.7082C3.4904 8.62128 3.42245 8.55082 3.33864 8.55082C3.25483 8.55082 3.18689 8.62128 3.18689 8.7082C3.18689 8.79511 3.25483 8.86557 3.33864 8.86557Z" fill="#4D9356"/>
<path d="M4.14801 8.86557C4.23182 8.86557 4.29977 8.79511 4.29977 8.7082C4.29977 8.62128 4.23182 8.55082 4.14801 8.55082C4.0642 8.55082 3.99625 8.62128 3.99625 8.7082C3.99625 8.79511 4.0642 8.86557 4.14801 8.86557Z" fill="#4D9356"/>
<path d="M4.95738 8.86557C5.04119 8.86557 5.10913 8.79511 5.10913 8.7082C5.10913 8.62128 5.04119 8.55082 4.95738 8.55082C4.87356 8.55082 4.80562 8.62128 4.80562 8.7082C4.80562 8.79511 4.87356 8.86557 4.95738 8.86557Z" fill="#4D9356"/>
<path d="M5.76674 8.86557C5.85056 8.86557 5.9185 8.79511 5.9185 8.7082C5.9185 8.62128 5.85056 8.55082 5.76674 8.55082C5.68293 8.55082 5.61499 8.62128 5.61499 8.7082C5.61499 8.79511 5.68293 8.86557 5.76674 8.86557Z" fill="#4D9356"/>
<path d="M6.72787 8.7082C6.72787 8.81311 6.67728 8.86557 6.57611 8.86557C6.47494 8.86557 6.42436 8.81311 6.42436 8.7082C6.42436 8.60328 6.47494 8.55082 6.57611 8.55082C6.67728 8.55082 6.72787 8.65574 6.72787 8.7082Z" fill="#4D9356"/>
<path d="M7.33489 8.86557C7.41871 8.86557 7.48665 8.79511 7.48665 8.7082C7.48665 8.62128 7.41871 8.55082 7.33489 8.55082C7.25108 8.55082 7.18314 8.62128 7.18314 8.7082C7.18314 8.79511 7.25108 8.86557 7.33489 8.86557Z" fill="#4D9356"/>
<path d="M8.14426 8.86557C8.22808 8.86557 8.29602 8.79511 8.29602 8.7082C8.29602 8.62128 8.22808 8.55082 8.14426 8.55082C8.06045 8.55082 7.99251 8.62128 7.99251 8.7082C7.99251 8.79511 8.06045 8.86557 8.14426 8.86557Z" fill="#4D9356"/>
<path d="M8.95363 8.86557C9.03744 8.86557 9.10539 8.79511 9.10539 8.7082C9.10539 8.62128 9.03744 8.55082 8.95363 8.55082C8.86982 8.55082 8.80187 8.62128 8.80187 8.7082C8.80187 8.79511 8.86982 8.86557 8.95363 8.86557Z" fill="#4D9356"/>
<path d="M3.33864 9.80984C3.42245 9.80984 3.4904 9.73938 3.4904 9.65246C3.4904 9.56554 3.42245 9.49508 3.33864 9.49508C3.25483 9.49508 3.18689 9.56554 3.18689 9.65246C3.18689 9.73938 3.25483 9.80984 3.33864 9.80984Z" fill="#4D9356"/>
<path d="M4.14801 9.80984C4.23182 9.80984 4.29977 9.73938 4.29977 9.65246C4.29977 9.56554 4.23182 9.49508 4.14801 9.49508C4.0642 9.49508 3.99625 9.56554 3.99625 9.65246C3.99625 9.73938 4.0642 9.80984 4.14801 9.80984Z" fill="#4D9356"/>
<path d="M4.95738 9.80984C5.04119 9.80984 5.10913 9.73938 5.10913 9.65246C5.10913 9.56554 5.04119 9.49508 4.95738 9.49508C4.87356 9.49508 4.80562 9.56554 4.80562 9.65246C4.80562 9.73938 4.87356 9.80984 4.95738 9.80984Z" fill="#4D9356"/>
<path d="M5.76674 9.80984C5.85056 9.80984 5.9185 9.73938 5.9185 9.65246C5.9185 9.56554 5.85056 9.49508 5.76674 9.49508C5.68293 9.49508 5.61499 9.56554 5.61499 9.65246C5.61499 9.73938 5.68293 9.80984 5.76674 9.80984Z" fill="#4D9356"/>
<path d="M6.52553 9.80984C6.60934 9.80984 6.67728 9.73938 6.67728 9.65246C6.67728 9.56554 6.60934 9.49508 6.52553 9.49508C6.44171 9.49508 6.37377 9.56554 6.37377 9.65246C6.37377 9.73938 6.44171 9.80984 6.52553 9.80984Z" fill="#4D9356"/>
<path d="M7.33489 9.80984C7.41871 9.80984 7.48665 9.73938 7.48665 9.65246C7.48665 9.56554 7.41871 9.49508 7.33489 9.49508C7.25108 9.49508 7.18314 9.56554 7.18314 9.65246C7.18314 9.73938 7.25108 9.80984 7.33489 9.80984Z" fill="#4D9356"/>
<path d="M8.14426 9.80984C8.22808 9.80984 8.29602 9.73938 8.29602 9.65246C8.29602 9.56554 8.22808 9.49508 8.14426 9.49508C8.06045 9.49508 7.99251 9.56554 7.99251 9.65246C7.99251 9.73938 8.06045 9.80984 8.14426 9.80984Z" fill="#4D9356"/>
<path d="M8.95363 9.80984C9.03744 9.80984 9.10539 9.73938 9.10539 9.65246C9.10539 9.56554 9.03744 9.49508 8.95363 9.49508C8.86982 9.49508 8.80187 9.56554 8.80187 9.65246C8.80187 9.73938 8.86982 9.80984 8.95363 9.80984Z" fill="#4D9356"/>
<path d="M3.33864 10.7016C3.42245 10.7016 3.4904 10.6312 3.4904 10.5443C3.4904 10.4573 3.42245 10.3869 3.33864 10.3869C3.25483 10.3869 3.18689 10.4573 3.18689 10.5443C3.18689 10.6312 3.25483 10.7016 3.33864 10.7016Z" fill="#4D9356"/>
<path d="M4.14801 10.7016C4.23182 10.7016 4.29977 10.6312 4.29977 10.5443C4.29977 10.4573 4.23182 10.3869 4.14801 10.3869C4.0642 10.3869 3.99625 10.4573 3.99625 10.5443C3.99625 10.6312 4.0642 10.7016 4.14801 10.7016Z" fill="#4D9356"/>
<path d="M4.95738 10.7016C5.04119 10.7016 5.10913 10.6312 5.10913 10.5443C5.10913 10.4573 5.04119 10.3869 4.95738 10.3869C4.87356 10.3869 4.80562 10.4573 4.80562 10.5443C4.80562 10.6312 4.87356 10.7016 4.95738 10.7016Z" fill="#4D9356"/>
<path d="M5.76674 10.7016C5.85056 10.7016 5.9185 10.6312 5.9185 10.5443C5.9185 10.4573 5.85056 10.3869 5.76674 10.3869C5.68293 10.3869 5.61499 10.4573 5.61499 10.5443C5.61499 10.6312 5.68293 10.7016 5.76674 10.7016Z" fill="#4D9356"/>
<path d="M6.52553 10.7016C6.60934 10.7016 6.67728 10.6312 6.67728 10.5443C6.67728 10.4573 6.60934 10.3869 6.52553 10.3869C6.44171 10.3869 6.37377 10.4573 6.37377 10.5443C6.37377 10.6312 6.44171 10.7016 6.52553 10.7016Z" fill="#4D9356"/>
<path d="M7.33489 10.7016C7.41871 10.7016 7.48665 10.6312 7.48665 10.5443C7.48665 10.4573 7.41871 10.3869 7.33489 10.3869C7.25108 10.3869 7.18314 10.4573 7.18314 10.5443C7.18314 10.6312 7.25108 10.7016 7.33489 10.7016Z" fill="#4D9356"/>
<path d="M8.14426 10.7016C8.22808 10.7016 8.29602 10.6312 8.29602 10.5443C8.29602 10.4573 8.22808 10.3869 8.14426 10.3869C8.06045 10.3869 7.99251 10.4573 7.99251 10.5443C7.99251 10.6312 8.06045 10.7016 8.14426 10.7016Z" fill="#4D9356"/>
<path d="M8.95363 10.7016C9.03744 10.7016 9.10539 10.6312 9.10539 10.5443C9.10539 10.4573 9.03744 10.3869 8.95363 10.3869C8.86982 10.3869 8.80187 10.4573 8.80187 10.5443C8.80187 10.6312 8.86982 10.7016 8.95363 10.7016Z" fill="#4D9356"/>
<path d="M21.9035 5.2459C21.9873 5.2459 22.0553 5.17544 22.0553 5.08852C22.0553 5.00161 21.9873 4.93115 21.9035 4.93115C21.8197 4.93115 21.7518 5.00161 21.7518 5.08852C21.7518 5.17544 21.8197 5.2459 21.9035 5.2459Z" fill="#4D9356"/>
<path d="M22.7129 5.2459C22.7967 5.2459 22.8646 5.17544 22.8646 5.08852C22.8646 5.00161 22.7967 4.93115 22.7129 4.93115C22.6291 4.93115 22.5611 5.00161 22.5611 5.08852C22.5611 5.17544 22.6291 5.2459 22.7129 5.2459Z" fill="#4D9356"/>
<path d="M23.5222 5.2459C23.6061 5.2459 23.674 5.17544 23.674 5.08852C23.674 5.00161 23.6061 4.93115 23.5222 4.93115C23.4384 4.93115 23.3705 5.00161 23.3705 5.08852C23.3705 5.17544 23.4384 5.2459 23.5222 5.2459Z" fill="#4D9356"/>
<path d="M24.3316 5.2459C24.4154 5.2459 24.4834 5.17544 24.4834 5.08852C24.4834 5.00161 24.4154 4.93115 24.3316 4.93115C24.2478 4.93115 24.1799 5.00161 24.1799 5.08852C24.1799 5.17544 24.2478 5.2459 24.3316 5.2459Z" fill="#4D9356"/>
<path d="M25.2927 5.08852C25.2927 5.19344 25.2422 5.2459 25.141 5.2459C25.0398 5.2459 24.9892 5.19344 24.9892 5.08852C24.9892 4.98361 25.0398 4.93115 25.141 4.93115C25.1916 4.93115 25.2927 5.03607 25.2927 5.08852Z" fill="#4D9356"/>
<path d="M25.8998 5.2459C25.9836 5.2459 26.0515 5.17544 26.0515 5.08852C26.0515 5.00161 25.9836 4.93115 25.8998 4.93115C25.816 4.93115 25.748 5.00161 25.748 5.08852C25.748 5.17544 25.816 5.2459 25.8998 5.2459Z" fill="#4D9356"/>
<path d="M26.7091 5.2459C26.7929 5.2459 26.8609 5.17544 26.8609 5.08852C26.8609 5.00161 26.7929 4.93115 26.7091 4.93115C26.6253 4.93115 26.5574 5.00161 26.5574 5.08852C26.5574 5.17544 26.6253 5.2459 26.7091 5.2459Z" fill="#4D9356"/>
<path d="M27.5185 5.2459C27.6023 5.2459 27.6703 5.17544 27.6703 5.08852C27.6703 5.00161 27.6023 4.93115 27.5185 4.93115C27.4347 4.93115 27.3667 5.00161 27.3667 5.08852C27.3667 5.17544 27.4347 5.2459 27.5185 5.2459Z" fill="#4D9356"/>
<path d="M21.9035 6.19016C21.9873 6.19016 22.0553 6.1197 22.0553 6.03279C22.0553 5.94587 21.9873 5.87541 21.9035 5.87541C21.8197 5.87541 21.7518 5.94587 21.7518 6.03279C21.7518 6.1197 21.8197 6.19016 21.9035 6.19016Z" fill="#4D9356"/>
<path d="M22.7129 6.19016C22.7967 6.19016 22.8646 6.1197 22.8646 6.03279C22.8646 5.94587 22.7967 5.87541 22.7129 5.87541C22.6291 5.87541 22.5611 5.94587 22.5611 6.03279C22.5611 6.1197 22.6291 6.19016 22.7129 6.19016Z" fill="#4D9356"/>
<path d="M23.5222 6.19016C23.6061 6.19016 23.674 6.1197 23.674 6.03279C23.674 5.94587 23.6061 5.87541 23.5222 5.87541C23.4384 5.87541 23.3705 5.94587 23.3705 6.03279C23.3705 6.1197 23.4384 6.19016 23.5222 6.19016Z" fill="#4D9356"/>
<path d="M24.3316 6.19016C24.4154 6.19016 24.4834 6.1197 24.4834 6.03279C24.4834 5.94587 24.4154 5.87541 24.3316 5.87541C24.2478 5.87541 24.1799 5.94587 24.1799 6.03279C24.1799 6.1197 24.2478 6.19016 24.3316 6.19016Z" fill="#4D9356"/>
<path d="M25.0904 6.19016C25.1742 6.19016 25.2422 6.1197 25.2422 6.03279C25.2422 5.94587 25.1742 5.87541 25.0904 5.87541C25.0066 5.87541 24.9386 5.94587 24.9386 6.03279C24.9386 6.1197 25.0066 6.19016 25.0904 6.19016Z" fill="#4D9356"/>
<path d="M25.8998 6.19016C25.9836 6.19016 26.0515 6.1197 26.0515 6.03279C26.0515 5.94587 25.9836 5.87541 25.8998 5.87541C25.816 5.87541 25.748 5.94587 25.748 6.03279C25.748 6.1197 25.816 6.19016 25.8998 6.19016Z" fill="#4D9356"/>
<path d="M26.7091 6.19016C26.7929 6.19016 26.8609 6.1197 26.8609 6.03279C26.8609 5.94587 26.7929 5.87541 26.7091 5.87541C26.6253 5.87541 26.5574 5.94587 26.5574 6.03279C26.5574 6.1197 26.6253 6.19016 26.7091 6.19016Z" fill="#4D9356"/>
<path d="M27.5185 6.19016C27.6023 6.19016 27.6703 6.1197 27.6703 6.03279C27.6703 5.94587 27.6023 5.87541 27.5185 5.87541C27.4347 5.87541 27.3667 5.94587 27.3667 6.03279C27.3667 6.1197 27.4347 6.19016 27.5185 6.19016Z" fill="#4D9356"/>
<path d="M21.9035 7.08197C21.9873 7.08197 22.0553 7.01151 22.0553 6.92459C22.0553 6.83767 21.9873 6.76721 21.9035 6.76721C21.8197 6.76721 21.7518 6.83767 21.7518 6.92459C21.7518 7.01151 21.8197 7.08197 21.9035 7.08197Z" fill="#4D9356"/>
<path d="M22.7129 7.08197C22.7967 7.08197 22.8646 7.01151 22.8646 6.92459C22.8646 6.83767 22.7967 6.76721 22.7129 6.76721C22.6291 6.76721 22.5611 6.83767 22.5611 6.92459C22.5611 7.01151 22.6291 7.08197 22.7129 7.08197Z" fill="#4D9356"/>
<path d="M23.5222 7.08197C23.6061 7.08197 23.674 7.01151 23.674 6.92459C23.674 6.83767 23.6061 6.76721 23.5222 6.76721C23.4384 6.76721 23.3705 6.83767 23.3705 6.92459C23.3705 7.01151 23.4384 7.08197 23.5222 7.08197Z" fill="#4D9356"/>
<path d="M24.3316 7.08197C24.4154 7.08197 24.4834 7.01151 24.4834 6.92459C24.4834 6.83767 24.4154 6.76721 24.3316 6.76721C24.2478 6.76721 24.1799 6.83767 24.1799 6.92459C24.1799 7.01151 24.2478 7.08197 24.3316 7.08197Z" fill="#4D9356"/>
<path d="M25.0904 7.08197C25.1742 7.08197 25.2422 7.01151 25.2422 6.92459C25.2422 6.83767 25.1742 6.76721 25.0904 6.76721C25.0066 6.76721 24.9386 6.83767 24.9386 6.92459C24.9386 7.01151 25.0066 7.08197 25.0904 7.08197Z" fill="#4D9356"/>
<path d="M25.8998 7.08197C25.9836 7.08197 26.0515 7.01151 26.0515 6.92459C26.0515 6.83767 25.9836 6.76721 25.8998 6.76721C25.816 6.76721 25.748 6.83767 25.748 6.92459C25.748 7.01151 25.816 7.08197 25.8998 7.08197Z" fill="#4D9356"/>
<path d="M26.7091 7.08197C26.7929 7.08197 26.8609 7.01151 26.8609 6.92459C26.8609 6.83767 26.7929 6.76721 26.7091 6.76721C26.6253 6.76721 26.5574 6.83767 26.5574 6.92459C26.5574 7.01151 26.6253 7.08197 26.7091 7.08197Z" fill="#4D9356"/>
<path d="M27.5185 7.08197C27.6023 7.08197 27.6703 7.01151 27.6703 6.92459C27.6703 6.83767 27.6023 6.76721 27.5185 6.76721C27.4347 6.76721 27.3667 6.83767 27.3667 6.92459C27.3667 7.01151 27.4347 7.08197 27.5185 7.08197Z" fill="#4D9356"/>
<path d="M21.9035 8.86557C21.9873 8.86557 22.0553 8.79511 22.0553 8.7082C22.0553 8.62128 21.9873 8.55082 21.9035 8.55082C21.8197 8.55082 21.7518 8.62128 21.7518 8.7082C21.7518 8.79511 21.8197 8.86557 21.9035 8.86557Z" fill="#4D9356"/>
<path d="M22.7129 8.86557C22.7967 8.86557 22.8646 8.79511 22.8646 8.7082C22.8646 8.62128 22.7967 8.55082 22.7129 8.55082C22.6291 8.55082 22.5611 8.62128 22.5611 8.7082C22.5611 8.79511 22.6291 8.86557 22.7129 8.86557Z" fill="#4D9356"/>
<path d="M23.5222 8.86557C23.6061 8.86557 23.674 8.79511 23.674 8.7082C23.674 8.62128 23.6061 8.55082 23.5222 8.55082C23.4384 8.55082 23.3705 8.62128 23.3705 8.7082C23.3705 8.79511 23.4384 8.86557 23.5222 8.86557Z" fill="#4D9356"/>
<path d="M24.3316 8.86557C24.4154 8.86557 24.4834 8.79511 24.4834 8.7082C24.4834 8.62128 24.4154 8.55082 24.3316 8.55082C24.2478 8.55082 24.1799 8.62128 24.1799 8.7082C24.1799 8.79511 24.2478 8.86557 24.3316 8.86557Z" fill="#4D9356"/>
<path d="M25.2927 8.7082C25.2927 8.81311 25.2422 8.86557 25.141 8.86557C25.0398 8.86557 24.9892 8.81311 24.9892 8.7082C24.9892 8.60328 25.0398 8.55082 25.0904 8.55082C25.1916 8.55082 25.2927 8.65574 25.2927 8.7082Z" fill="#4D9356"/>
<path d="M25.8998 8.86557C25.9836 8.86557 26.0515 8.79511 26.0515 8.7082C26.0515 8.62128 25.9836 8.55082 25.8998 8.55082C25.816 8.55082 25.748 8.62128 25.748 8.7082C25.748 8.79511 25.816 8.86557 25.8998 8.86557Z" fill="#4D9356"/>
<path d="M26.7091 8.86557C26.7929 8.86557 26.8609 8.79511 26.8609 8.7082C26.8609 8.62128 26.7929 8.55082 26.7091 8.55082C26.6253 8.55082 26.5574 8.62128 26.5574 8.7082C26.5574 8.79511 26.6253 8.86557 26.7091 8.86557Z" fill="#4D9356"/>
<path d="M27.5185 8.86557C27.6023 8.86557 27.6703 8.79511 27.6703 8.7082C27.6703 8.62128 27.6023 8.55082 27.5185 8.55082C27.4347 8.55082 27.3667 8.62128 27.3667 8.7082C27.3667 8.79511 27.4347 8.86557 27.5185 8.86557Z" fill="#4D9356"/>
<path d="M21.9035 9.80984C21.9873 9.80984 22.0553 9.73938 22.0553 9.65246C22.0553 9.56554 21.9873 9.49508 21.9035 9.49508C21.8197 9.49508 21.7518 9.56554 21.7518 9.65246C21.7518 9.73938 21.8197 9.80984 21.9035 9.80984Z" fill="#4D9356"/>
<path d="M22.7129 9.80984C22.7967 9.80984 22.8646 9.73938 22.8646 9.65246C22.8646 9.56554 22.7967 9.49508 22.7129 9.49508C22.6291 9.49508 22.5611 9.56554 22.5611 9.65246C22.5611 9.73938 22.6291 9.80984 22.7129 9.80984Z" fill="#4D9356"/>
<path d="M23.5222 9.80984C23.6061 9.80984 23.674 9.73938 23.674 9.65246C23.674 9.56554 23.6061 9.49508 23.5222 9.49508C23.4384 9.49508 23.3705 9.56554 23.3705 9.65246C23.3705 9.73938 23.4384 9.80984 23.5222 9.80984Z" fill="#4D9356"/>
<path d="M24.3316 9.80984C24.4154 9.80984 24.4834 9.73938 24.4834 9.65246C24.4834 9.56554 24.4154 9.49508 24.3316 9.49508C24.2478 9.49508 24.1799 9.56554 24.1799 9.65246C24.1799 9.73938 24.2478 9.80984 24.3316 9.80984Z" fill="#4D9356"/>
<path d="M25.0904 9.80984C25.1742 9.80984 25.2422 9.73938 25.2422 9.65246C25.2422 9.56554 25.1742 9.49508 25.0904 9.49508C25.0066 9.49508 24.9386 9.56554 24.9386 9.65246C24.9386 9.73938 25.0066 9.80984 25.0904 9.80984Z" fill="#4D9356"/>
<path d="M25.8998 9.80984C25.9836 9.80984 26.0515 9.73938 26.0515 9.65246C26.0515 9.56554 25.9836 9.49508 25.8998 9.49508C25.816 9.49508 25.748 9.56554 25.748 9.65246C25.748 9.73938 25.816 9.80984 25.8998 9.80984Z" fill="#4D9356"/>
<path d="M26.7091 9.80984C26.7929 9.80984 26.8609 9.73938 26.8609 9.65246C26.8609 9.56554 26.7929 9.49508 26.7091 9.49508C26.6253 9.49508 26.5574 9.56554 26.5574 9.65246C26.5574 9.73938 26.6253 9.80984 26.7091 9.80984Z" fill="#4D9356"/>
<path d="M27.5185 9.80984C27.6023 9.80984 27.6703 9.73938 27.6703 9.65246C27.6703 9.56554 27.6023 9.49508 27.5185 9.49508C27.4347 9.49508 27.3667 9.56554 27.3667 9.65246C27.3667 9.73938 27.4347 9.80984 27.5185 9.80984Z" fill="#4D9356"/>
<path d="M21.9035 10.7016C21.9873 10.7016 22.0553 10.6312 22.0553 10.5443C22.0553 10.4573 21.9873 10.3869 21.9035 10.3869C21.8197 10.3869 21.7518 10.4573 21.7518 10.5443C21.7518 10.6312 21.8197 10.7016 21.9035 10.7016Z" fill="#4D9356"/>
<path d="M22.7129 10.7016C22.7967 10.7016 22.8646 10.6312 22.8646 10.5443C22.8646 10.4573 22.7967 10.3869 22.7129 10.3869C22.6291 10.3869 22.5611 10.4573 22.5611 10.5443C22.5611 10.6312 22.6291 10.7016 22.7129 10.7016Z" fill="#4D9356"/>
<path d="M23.5222 10.7016C23.6061 10.7016 23.674 10.6312 23.674 10.5443C23.674 10.4573 23.6061 10.3869 23.5222 10.3869C23.4384 10.3869 23.3705 10.4573 23.3705 10.5443C23.3705 10.6312 23.4384 10.7016 23.5222 10.7016Z" fill="#4D9356"/>
<path d="M24.3316 10.7016C24.4154 10.7016 24.4834 10.6312 24.4834 10.5443C24.4834 10.4573 24.4154 10.3869 24.3316 10.3869C24.2478 10.3869 24.1799 10.4573 24.1799 10.5443C24.1799 10.6312 24.2478 10.7016 24.3316 10.7016Z" fill="#4D9356"/>
<path d="M25.0904 10.7016C25.1742 10.7016 25.2422 10.6312 25.2422 10.5443C25.2422 10.4573 25.1742 10.3869 25.0904 10.3869C25.0066 10.3869 24.9386 10.4573 24.9386 10.5443C24.9386 10.6312 25.0066 10.7016 25.0904 10.7016Z" fill="#4D9356"/>
<path d="M25.8998 10.7016C25.9836 10.7016 26.0515 10.6312 26.0515 10.5443C26.0515 10.4573 25.9836 10.3869 25.8998 10.3869C25.816 10.3869 25.748 10.4573 25.748 10.5443C25.748 10.6312 25.816 10.7016 25.8998 10.7016Z" fill="#4D9356"/>
<path d="M26.7091 10.7016C26.7929 10.7016 26.8609 10.6312 26.8609 10.5443C26.8609 10.4573 26.7929 10.3869 26.7091 10.3869C26.6253 10.3869 26.5574 10.4573 26.5574 10.5443C26.5574 10.6312 26.6253 10.7016 26.7091 10.7016Z" fill="#4D9356"/>
<path d="M27.5185 10.7016C27.6023 10.7016 27.6703 10.6312 27.6703 10.5443C27.6703 10.4573 27.6023 10.3869 27.5185 10.3869C27.4347 10.3869 27.3667 10.4573 27.3667 10.5443C27.3667 10.6312 27.4347 10.7016 27.5185 10.7016Z" fill="#4D9356"/>
</svg>
