<svg width="15" height="13" viewBox="0 0 15 13" fill="none" xmlns="http://www.w3.org/2000/svg">
<path d="M6.62323 0.736196C6.93343 -0.161792 8.20341 -0.161792 8.51362 0.736196L9.48401 3.54536C9.62325 3.94842 10.0028 4.21885 10.4292 4.21885H13.4329C14.4163 4.21885 14.8091 5.48957 13.9971 6.04447L11.6746 7.63164C11.3024 7.88594 11.1464 8.35776 11.2936 8.78377L12.2052 11.4227C12.5198 12.3334 11.4912 13.1185 10.6958 12.5749L8.13264 10.8233C7.79242 10.5908 7.34442 10.5908 7.0042 10.8233L4.44107 12.5749C3.64563 13.1185 2.61709 12.3334 2.93166 11.4227L3.84326 8.78377C3.99043 8.35776 3.83441 7.88594 3.46229 7.63164L1.13977 6.04447C0.327782 5.48957 0.720504 4.21885 1.70399 4.21885H4.70763C5.13407 4.21885 5.51359 3.94842 5.65283 3.54536L6.62323 0.736196Z" fill="#F1C731"/>
</svg>
