<svg width="16" height="10" viewBox="0 0 16 10" fill="none" xmlns="http://www.w3.org/2000/svg">
<path fill-rule="evenodd" clip-rule="evenodd" d="M15.4702 0.429369C15.8599 0.912667 15.7897 1.62501 15.3134 2.02044L6.12055 9.65245C5.71008 9.99322 5.1198 9.99322 4.70934 9.65245L0.53078 6.18335C0.0544863 5.78793 -0.0157159 5.07558 0.373979 4.59228C0.763674 4.10899 1.4657 4.03775 1.94199 4.43318L5.41494 7.31647L13.9022 0.270262C14.3785 -0.125164 15.0805 -0.0539294 15.4702 0.429369Z" fill="#404042"/>
</svg>
